<svg xmlns="http://www.w3.org/2000/svg" width="28" height="28" viewBox="0 0 28 28">
  <g id="Group_5737" data-name="Group 5737" transform="translate(-2)">
    <rect id="Rectangle_1400" data-name="Rectangle 1400" width="28" height="28" transform="translate(2)" fill="none"/>
    <path id="Path_2039" data-name="Path 2039" d="M32,56H50.85V69.352a.785.785,0,0,1-.785.785H32.785A.785.785,0,0,1,32,69.352Z" transform="translate(-25.5 -49.262)" fill="none" stroke="#000" stroke-linecap="round" stroke-linejoin="round" stroke-width="1"/>
    <path id="Path_2040" data-name="Path 2040" d="M50.85,56l-9.425,8.639L32,56" transform="translate(-25.5 -49.262)" fill="none" stroke="#000" stroke-linecap="round" stroke-linejoin="round" stroke-width="1"/>
  </g>
</svg>
